MyCSE2441Labs/Lab10/Part#3/EightBitCounter/simulation/qsim/EightBitCounter.msim.vcd
$comment
	File created using the following command:
		vcd file EightBitCounter.msim.vcd -direction
$end
$date
	Tue Nov 15 16:12:27 2022
$end
$version
	ModelSim Version 2020.1
$end
$timescale
	1ps
$end

$scope module EightBitCounter_vlg_vec_tst $end
$var reg 1 ! CLEAR $end
$var reg 1 " COUNT $end
$var wire 1 # y [7] $end
$var wire 1 $ y [6] $end
$var wire 1 % y [5] $end
$var wire 1 & y [4] $end
$var wire 1 ' y [3] $end
$var wire 1 ( y [2] $end
$var wire 1 ) y [1] $end
$var wire 1 * y [0] $end

$scope module i1 $end
$var wire 1 + gnd $end
$var wire 1 , vcc $end
$var wire 1 - unknown $end
$var tri1 1 . devclrn $end
$var tri1 1 / devpor $end
$var tri1 1 0 devoe $end
$var wire 1 1 ~QUARTUS_CREATED_GND~I_combout $end
$var wire 1 2 ~QUARTUS_CREATED_UNVM~~busy $end
$var wire 1 3 ~QUARTUS_CREATED_ADC1~~eoc $end
$var wire 1 4 ~QUARTUS_CREATED_ADC2~~eoc $end
$var wire 1 5 y[0]~output_o $end
$var wire 1 6 y[1]~output_o $end
$var wire 1 7 y[2]~output_o $end
$var wire 1 8 y[3]~output_o $end
$var wire 1 9 y[4]~output_o $end
$var wire 1 : y[5]~output_o $end
$var wire 1 ; y[6]~output_o $end
$var wire 1 < y[7]~output_o $end
$var wire 1 = COUNT~input_o $end
$var wire 1 > COUNT~inputclkctrl_outclk $end
$var wire 1 ? y[0]~21_combout $end
$var wire 1 @ CLEAR~input_o $end
$var wire 1 A CLEAR~inputclkctrl_outclk $end
$var wire 1 B y[0]~reg0_q $end
$var wire 1 C y[1]~7_combout $end
$var wire 1 D y[1]~reg0_q $end
$var wire 1 E y[1]~8 $end
$var wire 1 F y[2]~9_combout $end
$var wire 1 G y[2]~reg0_q $end
$var wire 1 H y[2]~10 $end
$var wire 1 I y[3]~11_combout $end
$var wire 1 J y[3]~reg0_q $end
$var wire 1 K y[3]~12 $end
$var wire 1 L y[4]~13_combout $end
$var wire 1 M y[4]~reg0_q $end
$var wire 1 N y[4]~14 $end
$var wire 1 O y[5]~15_combout $end
$var wire 1 P y[5]~reg0_q $end
$var wire 1 Q y[5]~16 $end
$var wire 1 R y[6]~17_combout $end
$var wire 1 S y[6]~reg0_q $end
$var wire 1 T y[6]~18 $end
$var wire 1 U y[7]~19_combout $end
$var wire 1 V y[7]~reg0_q $end
$upscope $end
$upscope $end
$enddefinitions $end
#0
$dumpvars
1!
0"
0*
0)
0(
0'
0&
0%
0$
0#
0+
1,
x-
1.
1/
10
01
z2
z3
z4
05
06
07
08
09
0:
0;
0<
0=
0>
1?
1@
1A
0B
0C
0D
0E
0F
0G
1H
0I
0J
0K
0L
0M
1N
0O
0P
0Q
0R
0S
1T
0U
0V
$end
#10000
0!
1"
1=
0@
0A
1>
#20000
1!
0"
0=
1@
1A
0>
#30000
1"
1=
1>
1B
15
1*
1C
0?
#40000
0"
0=
0>
#50000
1"
1=
1>
1D
0B
05
16
1)
0*
1?
#60000
0"
0=
0>
#70000
1"
1=
1>
1B
15
1E
1*
0C
0?
1F
#80000
0"
0=
0>
#90000
1"
1=
1>
1G
0D
0B
05
06
17
0H
0E
1(
0)
0*
0F
1?
1H
1I
1F
0I
#100000
0"
0=
0>
#110000
1"
1=
1>
1B
15
1*
1C
0?
#120000
0"
0=
0>
#130000
1"
1=
1>
1D
0B
05
16
1)
0*
1?
#140000
0"
0=
0>
#150000
1"
1=
1>
1B
15
1E
1*
0C
0?
0H
0F
1I
#160000
0"
0=
0>
#170000
1"
1=
1>
1J
0G
0D
0B
05
06
07
18
1K
1H
0E
1'
0(
0)
0*
0I
1F
1?
0K
1L
1I
0F
0L
#180000
0"
0=
0>
#190000
1"
1=
1>
1B
15
1*
1C
0?
#200000
0"
0=
0>
#210000
1"
1=
1>
1D
0B
05
16
1)
0*
1?
#220000
0"
0=
0>
#230000
1"
1=
1>
1B
15
1E
1*
0C
0?
1F
#240000
0"
0=
0>
#250000
1"
1=
1>
1G
0D
0B
05
06
17
0H
0E
1(
0)
0*
0F
1?
1K
1H
0I
1F
0K
1L
1I
0L
#260000
0"
0=
0>
#270000
1"
1=
1>
1B
15
1*
1C
0?
#280000
0"
0=
0>
#290000
1"
1=
1>
1D
0B
05
16
1)
0*
1?
#300000
0"
0=
0>
#310000
1"
1=
1>
1B
15
1E
1*
0C
0?
0H
0F
1K
0I
1L
#320000
0"
0=
0>
#330000
1"
1=
1>
1M
0J
0G
0D
0B
05
06
07
08
19
0N
0K
1H
0E
1&
0'
0(
0)
0*
0L
1I
1F
1?
1N
1O
1L
0I
0F
0O
#340000
0"
0=
0>
#350000
1"
1=
1>
1B
15
1*
1C
0?
#360000
0"
0=
0>
#370000
1"
1=
1>
1D
0B
05
16
1)
0*
1?
#380000
0"
0=
0>
#390000
1"
1=
1>
1B
15
1E
1*
0C
0?
1F
#400000
0"
0=
0>
#410000
1"
1=
1>
1G
0D
0B
05
06
17
0H
0E
1(
0)
0*
0F
1?
1H
1I
1F
0I
#420000
0"
0=
0>
#430000
1"
1=
1>
1B
15
1*
1C
0?
#440000
0"
0=
0>
#450000
1"
1=
1>
1D
0B
05
16
1)
0*
1?
#460000
0"
0=
0>
#470000
1"
1=
1>
1B
15
1E
1*
0C
0?
0H
0F
1I
#480000
0"
0=
0>
#490000
1"
1=
1>
1J
0G
0D
0B
05
06
07
18
1K
1H
0E
1'
0(
0)
0*
0I
1F
1?
0N
0K
0L
1I
0F
1N
1O
1L
0O
#500000
0"
0=
0>
#510000
1"
1=
1>
1B
15
1*
1C
0?
#520000
0"
0=
0>
#530000
1"
1=
1>
1D
0B
05
16
1)
0*
1?
#540000
0"
0=
0>
#550000
1"
1=
1>
1B
15
1E
1*
0C
0?
1F
#560000
0"
0=
0>
#570000
1"
1=
1>
1G
0D
0B
05
06
17
0H
0E
1(
0)
0*
0F
1?
1K
1H
0I
1F
0N
0K
0L
1I
1N
1O
1L
0O
#580000
0"
0=
0>
#590000
1"
1=
1>
1B
15
1*
1C
0?
#600000
0"
0=
0>
#610000
1"
1=
1>
1D
0B
05
16
1)
0*
1?
#620000
0"
0=
0>
#630000
1"
1=
1>
1B
15
1E
1*
0C
0?
0H
0F
1K
0I
0N
0L
1O
#640000
0"
0=
0>
#650000
1"
1=
1>
1P
0M
0J
0G
0D
0B
05
06
07
08
09
1:
1Q
1N
0K
1H
0E
1%
0&
0'
0(
0)
0*
0O
1L
1I
1F
1?
0Q
1R
1O
0L
0I
0F
0R
#660000
0"
0=
0>
#670000
1"
1=
1>
1B
15
1*
1C
0?
#680000
0"
0=
0>
#690000
1"
1=
1>
1D
0B
05
16
1)
0*
1?
#700000
0"
0=
0>
#710000
1"
1=
1>
1B
15
1E
1*
0C
0?
1F
#720000
0"
0=
0>
#730000
1"
1=
1>
1G
0D
0B
05
06
17
0H
0E
1(
0)
0*
0F
1?
1H
1I
1F
0I
#740000
0"
0=
0>
#750000
1"
1=
1>
1B
15
1*
1C
0?
#760000
0"
0=
0>
#770000
1"
1=
1>
1D
0B
05
16
1)
0*
1?
#780000
0"
0=
0>
#790000
1"
1=
1>
1B
15
1E
1*
0C
0?
0H
0F
1I
#800000
0"
0=
0>
#810000
1"
1=
1>
1J
0G
0D
0B
05
06
07
18
1K
1H
0E
1'
0(
0)
0*
0I
1F
1?
0K
1L
1I
0F
0L
#820000
0"
0=
0>
#830000
1"
1=
1>
1B
15
1*
1C
0?
#840000
0"
0=
0>
#850000
1"
1=
1>
1D
0B
05
16
1)
0*
1?
#860000
0"
0=
0>
#870000
1"
1=
1>
1B
15
1E
1*
0C
0?
1F
#880000
0"
0=
0>
#890000
1"
1=
1>
1G
0D
0B
05
06
17
0H
0E
1(
0)
0*
0F
1?
1K
1H
0I
1F
0K
1L
1I
0L
#900000
0"
0=
0>
#910000
1"
1=
1>
1B
15
1*
1C
0?
#920000
0"
0=
0>
#930000
1"
1=
1>
1D
0B
05
16
1)
0*
1?
#940000
0"
0=
0>
#950000
1"
1=
1>
1B
15
1E
1*
0C
0?
0H
0F
1K
0I
1L
#960000
0"
0=
0>
#970000
1"
1=
1>
1M
0J
0G
0D
0B
05
06
07
08
19
0N
0K
1H
0E
1&
0'
0(
0)
0*
0L
1I
1F
1?
1Q
1N
0O
1L
0I
0F
0Q
1R
1O
0R
#980000
0"
0=
0>
#990000
1"
1=
1>
1B
15
1*
1C
0?
