MyCSE2441Labs/Multiplexer2To1/simulation/qsim/Multiplexer2To1.msim.vcd
$comment
	File created using the following command:
		vcd file Multiplexer2To1.msim.vcd -direction
$end
$date
	Thu Nov 03 19:26:04 2022
$end
$version
	ModelSim Version 2020.1
$end
$timescale
	1ps
$end

$scope module Multiplexer2To1_vlg_vec_tst $end
$var reg 4 ! A [3:0] $end
$var reg 4 " B [3:0] $end
$var reg 1 # P $end
$var wire 1 $ Y [3] $end
$var wire 1 % Y [2] $end
$var wire 1 & Y [1] $end
$var wire 1 ' Y [0] $end

$scope module i1 $end
$var wire 1 ( gnd $end
$var wire 1 ) vcc $end
$var wire 1 * unknown $end
$var tri1 1 + devclrn $end
$var tri1 1 , devpor $end
$var tri1 1 - devoe $end
$var wire 1 . ~QUARTUS_CREATED_GND~I_combout $end
$var wire 1 / ~QUARTUS_CREATED_UNVM~~busy $end
$var wire 1 0 ~QUARTUS_CREATED_ADC1~~eoc $end
$var wire 1 1 ~QUARTUS_CREATED_ADC2~~eoc $end
$var wire 1 2 Y[0]~output_o $end
$var wire 1 3 Y[1]~output_o $end
$var wire 1 4 Y[2]~output_o $end
$var wire 1 5 Y[3]~output_o $end
$var wire 1 6 A[0]~input_o $end
$var wire 1 7 B[0]~input_o $end
$var wire 1 8 P~input_o $end
$var wire 1 9 Y~0_combout $end
$var wire 1 : B[1]~input_o $end
$var wire 1 ; A[1]~input_o $end
$var wire 1 < Y~1_combout $end
$var wire 1 = A[2]~input_o $end
$var wire 1 > B[2]~input_o $end
$var wire 1 ? Y~2_combout $end
$var wire 1 @ B[3]~input_o $end
$var wire 1 A A[3]~input_o $end
$var wire 1 B Y~3_combout $end
$upscope $end
$upscope $end
$enddefinitions $end
#0
$dumpvars
b0 !
b0 "
1#
0'
0&
0%
0$
0(
1)
x*
1+
1,
1-
0.
z/
z0
z1
02
03
04
05
06
07
18
09
0:
0;
0<
0=
0>
0?
0@
0A
0B
$end
#100000
b1000 "
b1100 "
b1110 "
1@
1>
1:
1B
1?
1<
13
14
15
1$
1%
1&
#150000
b110 "
b10 "
b0 "
0@
0>
0:
0B
0?
0<
03
04
05
0$
0%
0&
#175000
0#
b1000 "
b1100 "
b1110 "
1@
1>
1:
08
#225000
1#
b110 "
b10 "
b0 "
0@
0>
0:
18
#450000
b1000 !
b1100 !
0#
08
1A
1=
1B
1?
14
15
1$
1%
#500000
b100 !
b0 !
1#
18
0A
0=
0B
0?
04
05
0$
0%
#550000
b1000 !
b1100 !
1A
1=
#600000
b100 !
b0 !
0A
0=
#700000
b1000 "
1@
1B
15
1$
#725000
b0 "
0@
0B
05
0$
